﻿{
  "expand": "renderedFields,names,schema,operations,editmeta,changelog,versionedRepresentations",
  "id": "10742",
  "self": "https://applicint-usa.atlassian.net/rest/api/2/issue/10742",
  "key": "EX-85",
  "fields": {
    "issuetype": {
      "self": "https://applicint-usa.atlassian.net/rest/api/2/issuetype/10002",
      "id": "10002",
      "description": "A task that needs to be done.",
      "iconUrl": "https://applicint-usa.atlassian.net/secure/viewavatar?size=xsmall&avatarId=10318&avatarType=issuetype",
      "name": "Task",
      "subtask": false,
      "avatarId": 10318
    },
    "timespent": 93600,
    "customfield_10030": null,
    "project": {
      "self": "https://applicint-usa.atlassian.net/rest/api/2/project/10007",
      "id": "10007",
      "key": "EX",
      "name": "ExpressComplete",
      "projectTypeKey": "software",
      "avatarUrls": {
        "48x48": "https://applicint-usa.atlassian.net/secure/projectavatar?pid=10007&avatarId=10512",
        "24x24": "https://applicint-usa.atlassian.net/secure/projectavatar?size=small&pid=10007&avatarId=10512",
        "16x16": "https://applicint-usa.atlassian.net/secure/projectavatar?size=xsmall&pid=10007&avatarId=10512",
        "32x32": "https://applicint-usa.atlassian.net/secure/projectavatar?size=medium&pid=10007&avatarId=10512"
      }
    },
    "customfield_10031": [],
    "customfield_10032": null,
    "customfield_10033": null,
    "fixVersions": [],
    "aggregatetimespent": 99000,
    "customfield_10034": null,
    "resolution": {
      "self": "https://applicint-usa.atlassian.net/rest/api/2/resolution/10004",
      "id": "10004",
      "description": "uploaded to production and verified",
      "name": "Closed"
    },
    "customfield_10035": null,
    "customfield_10027": null,
    "customfield_10028": null,
    "customfield_10029": null,
    "resolutiondate": "2018-06-24T02:24:31.239-0700",
    "workratio": 9223372036854775807,
    "watches": {
      "self": "https://applicint-usa.atlassian.net/rest/api/2/issue/EX-85/watchers",
      "watchCount": 3,
      "isWatching": false
    },
    "lastViewed": null,
    "created": "2018-03-30T04:18:21.362-0700",
    "priority": {
      "self": "https://applicint-usa.atlassian.net/rest/api/2/priority/4",
      "iconUrl": "https://applicint-usa.atlassian.net/images/icons/priorities/low.svg",
      "name": "Low",
      "id": "4"
    },
    "customfield_10024": null,
    "customfield_10025": {
      "self": "https://applicint-usa.atlassian.net/rest/api/2/customFieldOption/10006",
      "value": "Express Complete",
      "id": "10006"
    },
    "labels": [],
    "customfield_10026": null,
    "timeestimate": 0,
    "aggregatetimeoriginalestimate": 5400,
    "versions": [],
    "issuelinks": [
      {
        "id": "10747",
        "self": "https://applicint-usa.atlassian.net/rest/api/2/issueLink/10747",
        "type": {
          "id": "10003",
          "name": "Relates",
          "inward": "relates to",
          "outward": "relates to",
          "self": "https://applicint-usa.atlassian.net/rest/api/2/issueLinkType/10003"
        },
        "inwardIssue": {
          "id": "11807",
          "key": "EX-256",
          "self": "https://applicint-usa.atlassian.net/rest/api/2/issue/11807",
          "fields": {
            "summary": "Create separate EI tool for ExC logic only",
            "status": {
              "self": "https://applicint-usa.atlassian.net/rest/api/2/status/10001",
              "description": "Everything is complete",
              "iconUrl": "https://applicint-usa.atlassian.net/",
              "name": "Closed/Complete",
              "id": "10001",
              "statusCategory": {
                "self": "https://applicint-usa.atlassian.net/rest/api/2/statuscategory/3",
                "id": 3,
                "key": "done",
                "colorName": "green",
                "name": "Done"
              }
            },
            "priority": {
              "self": "https://applicint-usa.atlassian.net/rest/api/2/priority/3",
              "iconUrl": "https://applicint-usa.atlassian.net/images/icons/priorities/medium.svg",
              "name": "Medium",
              "id": "3"
            },
            "issuetype": {
              "self": "https://applicint-usa.atlassian.net/rest/api/2/issuetype/10002",
              "id": "10002",
              "description": "A task that needs to be done.",
              "iconUrl": "https://applicint-usa.atlassian.net/secure/viewavatar?size=xsmall&avatarId=10318&avatarType=issuetype",
              "name": "Task",
              "subtask": false,
              "avatarId": 10318
            }
          }
        }
      }
    ],
    "assignee": {
      "name": "Alexander Ivanchikov",
      "key": "Alexander Ivanchikov",
      "displayName": "Alexander Ivanchikov",
      "active": true,
      "timeZone": "Europe/Minsk"
    },
    "updated": "2018-09-08T22:58:09.274-0700",
    "status": {
      "self": "https://applicint-usa.atlassian.net/rest/api/2/status/6",
      "description": "The issue is considered finished, the resolution is correct. Issues which are closed can be reopened.",
      "iconUrl": "https://applicint-usa.atlassian.net/images/icons/statuses/closed.png",
      "name": "Closed",
      "id": "6",
      "statusCategory": {
        "self": "https://applicint-usa.atlassian.net/rest/api/2/statuscategory/3",
        "id": 3,
        "key": "done",
        "colorName": "green",
        "name": "Done"
      }
    },
    "components": [],
    "timeoriginalestimate": 0,
    "description": "1) Please move (or copy) the product list into a separate file? Name it “External Interfaces Supported Products List.docx”. it will be a light version of the document we have now. It will be great if it’s not a static file (we have to support), but generates on the fly.\r\n\r\nAll products are listed in : ProductsInfo.xml\r\n\r\n !999.png|thumbnail! \r\n\r\n2) Error message : ExpressComplete does not support requested product ....\r\nPlease add \"Please contact Admin to configure it.\"\r\nThere will be very cool to add a link to the list of supported products (see the suggestion #a).",
    "customfield_10010": [ "com.atlassian.greenhopper.service.sprint.Sprint@5e2c2cba[id=24,rapidViewId=6,state=CLOSED,name=1.42.0 ExC Sprint (Apr-14),goal=,startDate=2018-03-28T16:53:04.744Z,endDate=2018-04-14T16:53:00.000Z,completeDate=2018-06-26T13:08:43.293Z,sequence=24]" ],
    "customfield_10011": "1|i0047r:",
    "customfield_10012": "2018-04-11T03:57:52.205-0700",
    "customfield_10013": "1_*:*_1_*:*_265307667_*|*_3_*:*_1_*:*_0",
    "timetracking": {
      "originalEstimate": "0m",
      "remainingEstimate": "0m",
      "timeSpent": "3d 2h",
      "originalEstimateSeconds": 0,
      "remainingEstimateSeconds": 0,
      "timeSpentSeconds": 93600
    },
    "security": null,
    "customfield_10008": null,
    "attachment": [
      {
        "self": "https://applicint-usa.atlassian.net/rest/api/2/attachment/10971",
        "id": "10971",
        "filename": "999.png",
        "author": {
          "self": "https://applicint-usa.atlassian.net/rest/api/2/user?accountId=557058%3A1d78dd6f-24e8-4f1a-92b4-c344d4da789f",
          "name": "achechko",
          "key": "achechko",
          "accountId": "557058:1d78dd6f-24e8-4f1a-92b4-c344d4da789f",
          "emailAddress": "achechko@applicint-usa.com",
          "avatarUrls": {
            "48x48": "https://avatar-cdn.atlassian.com/5827cc69e54dc089ed1cbc2a0f0e9d90?s=48&d=https%3A%2F%2Fsecure.gravatar.com%2Favatar%2F5827cc69e54dc089ed1cbc2a0f0e9d90%3Fd%3Dmm%26s%3D48%26noRedirect%3Dtrue",
            "24x24": "https://avatar-cdn.atlassian.com/5827cc69e54dc089ed1cbc2a0f0e9d90?s=24&d=https%3A%2F%2Fsecure.gravatar.com%2Favatar%2F5827cc69e54dc089ed1cbc2a0f0e9d90%3Fd%3Dmm%26s%3D24%26noRedirect%3Dtrue",
            "16x16": "https://avatar-cdn.atlassian.com/5827cc69e54dc089ed1cbc2a0f0e9d90?s=16&d=https%3A%2F%2Fsecure.gravatar.com%2Favatar%2F5827cc69e54dc089ed1cbc2a0f0e9d90%3Fd%3Dmm%26s%3D16%26noRedirect%3Dtrue",
            "32x32": "https://avatar-cdn.atlassian.com/5827cc69e54dc089ed1cbc2a0f0e9d90?s=32&d=https%3A%2F%2Fsecure.gravatar.com%2Favatar%2F5827cc69e54dc089ed1cbc2a0f0e9d90%3Fd%3Dmm%26s%3D32%26noRedirect%3Dtrue"
          },
          "displayName": "Anzhelika Chechko",
          "active": true,
          "timeZone": "Europe/Minsk"
        },
        "created": "2018-03-30T04:17:42.046-0700",
        "size": 73334,
        "mimeType": "image/png",
        "content": "https://applicint-usa.atlassian.net/secure/attachment/10971/999.png",
        "thumbnail": "https://applicint-usa.atlassian.net/secure/thumbnail/10971/999.png"
      }
    ],
    "customfield_10009": {
      "hasEpicLinkFieldDependency": false,
      "showField": false,
      "nonEditableReason": {
        "reason": "EPIC_LINK_SHOULD_BE_USED",
        "message": "To set an epic as the parent, use the epic link instead"
      }
    },
    "aggregatetimeestimate": 0,
    "summary": "\"External Interfaces\" specification changes",
    "creator": {
      "self": "https://applicint-usa.atlassian.net/rest/api/2/user?accountId=557058%3A1d78dd6f-24e8-4f1a-92b4-c344d4da789f",
      "name": "achechko",
      "key": "achechko",
      "accountId": "557058:1d78dd6f-24e8-4f1a-92b4-c344d4da789f",
      "emailAddress": "achechko@applicint-usa.com",
      "avatarUrls": {
        "48x48": "https://avatar-cdn.atlassian.com/5827cc69e54dc089ed1cbc2a0f0e9d90?s=48&d=https%3A%2F%2Fsecure.gravatar.com%2Favatar%2F5827cc69e54dc089ed1cbc2a0f0e9d90%3Fd%3Dmm%26s%3D48%26noRedirect%3Dtrue",
        "24x24": "https://avatar-cdn.atlassian.com/5827cc69e54dc089ed1cbc2a0f0e9d90?s=24&d=https%3A%2F%2Fsecure.gravatar.com%2Favatar%2F5827cc69e54dc089ed1cbc2a0f0e9d90%3Fd%3Dmm%26s%3D24%26noRedirect%3Dtrue",
        "16x16": "https://avatar-cdn.atlassian.com/5827cc69e54dc089ed1cbc2a0f0e9d90?s=16&d=https%3A%2F%2Fsecure.gravatar.com%2Favatar%2F5827cc69e54dc089ed1cbc2a0f0e9d90%3Fd%3Dmm%26s%3D16%26noRedirect%3Dtrue",
        "32x32": "https://avatar-cdn.atlassian.com/5827cc69e54dc089ed1cbc2a0f0e9d90?s=32&d=https%3A%2F%2Fsecure.gravatar.com%2Favatar%2F5827cc69e54dc089ed1cbc2a0f0e9d90%3Fd%3Dmm%26s%3D32%26noRedirect%3Dtrue"
      },
      "displayName": "Anzhelika Chechko",
      "active": true,
      "timeZone": "Europe/Minsk"
    },
    "subtasks": [
      {
        "id": "10941",
        "key": "EX-125",
        "self": "https://applicint-usa.atlassian.net/rest/api/2/issue/10941",
        "fields": {
          "summary": "Got Restrict after go to URL for \"External Interfaces Supported Products List\" document",
          "status": {
            "self": "https://applicint-usa.atlassian.net/rest/api/2/status/6",
            "description": "The issue is considered finished, the resolution is correct. Issues which are closed can be reopened.",
            "iconUrl": "https://applicint-usa.atlassian.net/images/icons/statuses/closed.png",
            "name": "Closed",
            "id": "6",
            "statusCategory": {
              "self": "https://applicint-usa.atlassian.net/rest/api/2/statuscategory/3",
              "id": 3,
              "key": "done",
              "colorName": "green",
              "name": "Done"
            }
          },
          "priority": {
            "self": "https://applicint-usa.atlassian.net/rest/api/2/priority/3",
            "iconUrl": "https://applicint-usa.atlassian.net/images/icons/priorities/medium.svg",
            "name": "Medium",
            "id": "3"
          },
          "issuetype": {
            "self": "https://applicint-usa.atlassian.net/rest/api/2/issuetype/10003",
            "id": "10003",
            "description": "The sub-task of the issue",
            "iconUrl": "https://applicint-usa.atlassian.net/secure/viewavatar?size=xsmall&avatarId=10316&avatarType=issuetype",
            "name": "Sub-task",
            "subtask": true,
            "avatarId": 10316
          }
        }
      }
    ],
    "reporter": {
      "self": "https://applicint-usa.atlassian.net/rest/api/2/user?accountId=557058%3A1d78dd6f-24e8-4f1a-92b4-c344d4da789f",
      "name": "achechko",
      "key": "achechko",
      "accountId": "557058:1d78dd6f-24e8-4f1a-92b4-c344d4da789f",
      "emailAddress": "achechko@applicint-usa.com",
      "avatarUrls": {
        "48x48": "https://avatar-cdn.atlassian.com/5827cc69e54dc089ed1cbc2a0f0e9d90?s=48&d=https%3A%2F%2Fsecure.gravatar.com%2Favatar%2F5827cc69e54dc089ed1cbc2a0f0e9d90%3Fd%3Dmm%26s%3D48%26noRedirect%3Dtrue",
        "24x24": "https://avatar-cdn.atlassian.com/5827cc69e54dc089ed1cbc2a0f0e9d90?s=24&d=https%3A%2F%2Fsecure.gravatar.com%2Favatar%2F5827cc69e54dc089ed1cbc2a0f0e9d90%3Fd%3Dmm%26s%3D24%26noRedirect%3Dtrue",
        "16x16": "https://avatar-cdn.atlassian.com/5827cc69e54dc089ed1cbc2a0f0e9d90?s=16&d=https%3A%2F%2Fsecure.gravatar.com%2Favatar%2F5827cc69e54dc089ed1cbc2a0f0e9d90%3Fd%3Dmm%26s%3D16%26noRedirect%3Dtrue",
        "32x32": "https://avatar-cdn.atlassian.com/5827cc69e54dc089ed1cbc2a0f0e9d90?s=32&d=https%3A%2F%2Fsecure.gravatar.com%2Favatar%2F5827cc69e54dc089ed1cbc2a0f0e9d90%3Fd%3Dmm%26s%3D32%26noRedirect%3Dtrue"
      },
      "displayName": "Anzhelika Chechko",
      "active": true,
      "timeZone": "Europe/Minsk"
    },
    "customfield_10000": "{}",
    "aggregateprogress": {
      "progress": 99000,
      "total": 99000,
      "percent": 100
    },
    "customfield_10001": null,
    "customfield_10004": null,
    "environment": null,
    "duedate": "2018-04-13",
    "progress": {
      "progress": 93600,
      "total": 93600,
      "percent": 100
    },
    "comment": {
      "comments": [
        {
          "self": "https://applicint-usa.atlassian.net/rest/api/2/issue/10742/comment/11802",
          "id": "11802",
          "author": {
            "self": "https://applicint-usa.atlassian.net/rest/api/2/user?accountId=5a97dd4a790c3a32f754a0ba",
            "name": "alexst",
            "key": "alexst",
            "accountId": "5a97dd4a790c3a32f754a0ba",
            "emailAddress": "alexst@fptrade.net",
            "avatarUrls": {
              "48x48": "https://avatar-cdn.atlassian.com/3e2e220f9f1a0c5520cfeb19495480d2?s=48&d=https%3A%2F%2Fsecure.gravatar.com%2Favatar%2F3e2e220f9f1a0c5520cfeb19495480d2%3Fd%3Dmm%26s%3D48%26noRedirect%3Dtrue",
              "24x24": "https://avatar-cdn.atlassian.com/3e2e220f9f1a0c5520cfeb19495480d2?s=24&d=https%3A%2F%2Fsecure.gravatar.com%2Favatar%2F3e2e220f9f1a0c5520cfeb19495480d2%3Fd%3Dmm%26s%3D24%26noRedirect%3Dtrue",
              "16x16": "https://avatar-cdn.atlassian.com/3e2e220f9f1a0c5520cfeb19495480d2?s=16&d=https%3A%2F%2Fsecure.gravatar.com%2Favatar%2F3e2e220f9f1a0c5520cfeb19495480d2%3Fd%3Dmm%26s%3D16%26noRedirect%3Dtrue",
              "32x32": "https://avatar-cdn.atlassian.com/3e2e220f9f1a0c5520cfeb19495480d2?s=32&d=https%3A%2F%2Fsecure.gravatar.com%2Favatar%2F3e2e220f9f1a0c5520cfeb19495480d2%3Fd%3Dmm%26s%3D32%26noRedirect%3Dtrue"
            },
            "displayName": "Alexander Starovoitov",
            "active": true,
            "timeZone": "Europe/Minsk"
          },
          "body": "Verified 4/11/18 - done",
          "updateAuthor": {
            "self": "https://applicint-usa.atlassian.net/rest/api/2/user?accountId=5a97dd4a790c3a32f754a0ba",
            "name": "alexst",
            "key": "alexst",
            "accountId": "5a97dd4a790c3a32f754a0ba",
            "emailAddress": "alexst@fptrade.net",
            "avatarUrls": {
              "48x48": "https://avatar-cdn.atlassian.com/3e2e220f9f1a0c5520cfeb19495480d2?s=48&d=https%3A%2F%2Fsecure.gravatar.com%2Favatar%2F3e2e220f9f1a0c5520cfeb19495480d2%3Fd%3Dmm%26s%3D48%26noRedirect%3Dtrue",
              "24x24": "https://avatar-cdn.atlassian.com/3e2e220f9f1a0c5520cfeb19495480d2?s=24&d=https%3A%2F%2Fsecure.gravatar.com%2Favatar%2F3e2e220f9f1a0c5520cfeb19495480d2%3Fd%3Dmm%26s%3D24%26noRedirect%3Dtrue",
              "16x16": "https://avatar-cdn.atlassian.com/3e2e220f9f1a0c5520cfeb19495480d2?s=16&d=https%3A%2F%2Fsecure.gravatar.com%2Favatar%2F3e2e220f9f1a0c5520cfeb19495480d2%3Fd%3Dmm%26s%3D16%26noRedirect%3Dtrue",
              "32x32": "https://avatar-cdn.atlassian.com/3e2e220f9f1a0c5520cfeb19495480d2?s=32&d=https%3A%2F%2Fsecure.gravatar.com%2Favatar%2F3e2e220f9f1a0c5520cfeb19495480d2%3Fd%3Dmm%26s%3D32%26noRedirect%3Dtrue"
            },
            "displayName": "Alexander Starovoitov",
            "active": true,
            "timeZone": "Europe/Minsk"
          },
          "created": "2018-04-11T03:57:52.205-0700",
          "updated": "2018-04-11T03:57:52.205-0700",
          "jsdPublic": true
        },
        {
          "self": "https://applicint-usa.atlassian.net/rest/api/2/issue/10742/comment/12818",
          "id": "12818",
          "author": {
            "self": "https://applicint-usa.atlassian.net/rest/api/2/user?accountId=557058%3A664e4f9d-dbb1-4e13-9d6b-bb9ba14cb8b1",
            "name": "chesketh",
            "key": "chesketh",
            "accountId": "557058:664e4f9d-dbb1-4e13-9d6b-bb9ba14cb8b1",
            "emailAddress": "chesketh@applicint-usa.com",
            "avatarUrls": {
              "48x48": "https://avatar-cdn.atlassian.com/70011b20cb9f511f8d13a389a1cc37f0?s=48&d=https%3A%2F%2Fsecure.gravatar.com%2Favatar%2F70011b20cb9f511f8d13a389a1cc37f0%3Fd%3Dmm%26s%3D48%26noRedirect%3Dtrue",
              "24x24": "https://avatar-cdn.atlassian.com/70011b20cb9f511f8d13a389a1cc37f0?s=24&d=https%3A%2F%2Fsecure.gravatar.com%2Favatar%2F70011b20cb9f511f8d13a389a1cc37f0%3Fd%3Dmm%26s%3D24%26noRedirect%3Dtrue",
              "16x16": "https://avatar-cdn.atlassian.com/70011b20cb9f511f8d13a389a1cc37f0?s=16&d=https%3A%2F%2Fsecure.gravatar.com%2Favatar%2F70011b20cb9f511f8d13a389a1cc37f0%3Fd%3Dmm%26s%3D16%26noRedirect%3Dtrue",
              "32x32": "https://avatar-cdn.atlassian.com/70011b20cb9f511f8d13a389a1cc37f0?s=32&d=https%3A%2F%2Fsecure.gravatar.com%2Favatar%2F70011b20cb9f511f8d13a389a1cc37f0%3Fd%3Dmm%26s%3D32%26noRedirect%3Dtrue"
            },
            "displayName": "Colin Hesketh",
            "active": true,
            "timeZone": "Asia/Bangkok"
          },
          "body": "[~achechko], [~aivanchikov]\r\n\r\nWhen I tested a quote with a product that was not supported (AG carrier with 1 Year Level Term - the warning message states \"No Products are available for this particular comparison\"\r\n\r\nShouldn't the message be \"ExpressComplete does not support the requested product. Please contact Admin to configure it\"\r\n\r\nAm I testing this correctly?",
          "updateAuthor": {
            "self": "https://applicint-usa.atlassian.net/rest/api/2/user?accountId=557058%3A664e4f9d-dbb1-4e13-9d6b-bb9ba14cb8b1",
            "name": "chesketh",
            "key": "chesketh",
            "accountId": "557058:664e4f9d-dbb1-4e13-9d6b-bb9ba14cb8b1",
            "emailAddress": "chesketh@applicint-usa.com",
            "avatarUrls": {
              "48x48": "https://avatar-cdn.atlassian.com/70011b20cb9f511f8d13a389a1cc37f0?s=48&d=https%3A%2F%2Fsecure.gravatar.com%2Favatar%2F70011b20cb9f511f8d13a389a1cc37f0%3Fd%3Dmm%26s%3D48%26noRedirect%3Dtrue",
              "24x24": "https://avatar-cdn.atlassian.com/70011b20cb9f511f8d13a389a1cc37f0?s=24&d=https%3A%2F%2Fsecure.gravatar.com%2Favatar%2F70011b20cb9f511f8d13a389a1cc37f0%3Fd%3Dmm%26s%3D24%26noRedirect%3Dtrue",
              "16x16": "https://avatar-cdn.atlassian.com/70011b20cb9f511f8d13a389a1cc37f0?s=16&d=https%3A%2F%2Fsecure.gravatar.com%2Favatar%2F70011b20cb9f511f8d13a389a1cc37f0%3Fd%3Dmm%26s%3D16%26noRedirect%3Dtrue",
              "32x32": "https://avatar-cdn.atlassian.com/70011b20cb9f511f8d13a389a1cc37f0?s=32&d=https%3A%2F%2Fsecure.gravatar.com%2Favatar%2F70011b20cb9f511f8d13a389a1cc37f0%3Fd%3Dmm%26s%3D32%26noRedirect%3Dtrue"
            },
            "displayName": "Colin Hesketh",
            "active": true,
            "timeZone": "Asia/Bangkok"
          },
          "created": "2018-04-25T03:36:58.200-0700",
          "updated": "2018-04-25T03:36:58.200-0700",
          "jsdPublic": true
        },
        {
          "self": "https://applicint-usa.atlassian.net/rest/api/2/issue/10742/comment/12821",
          "id": "12821",
          "author": {
            "self": "https://applicint-usa.atlassian.net/rest/api/2/user?accountId=557058%3A664e4f9d-dbb1-4e13-9d6b-bb9ba14cb8b1",
            "name": "chesketh",
            "key": "chesketh",
            "accountId": "557058:664e4f9d-dbb1-4e13-9d6b-bb9ba14cb8b1",
            "emailAddress": "chesketh@applicint-usa.com",
            "avatarUrls": {
              "48x48": "https://avatar-cdn.atlassian.com/70011b20cb9f511f8d13a389a1cc37f0?s=48&d=https%3A%2F%2Fsecure.gravatar.com%2Favatar%2F70011b20cb9f511f8d13a389a1cc37f0%3Fd%3Dmm%26s%3D48%26noRedirect%3Dtrue",
              "24x24": "https://avatar-cdn.atlassian.com/70011b20cb9f511f8d13a389a1cc37f0?s=24&d=https%3A%2F%2Fsecure.gravatar.com%2Favatar%2F70011b20cb9f511f8d13a389a1cc37f0%3Fd%3Dmm%26s%3D24%26noRedirect%3Dtrue",
              "16x16": "https://avatar-cdn.atlassian.com/70011b20cb9f511f8d13a389a1cc37f0?s=16&d=https%3A%2F%2Fsecure.gravatar.com%2Favatar%2F70011b20cb9f511f8d13a389a1cc37f0%3Fd%3Dmm%26s%3D16%26noRedirect%3Dtrue",
              "32x32": "https://avatar-cdn.atlassian.com/70011b20cb9f511f8d13a389a1cc37f0?s=32&d=https%3A%2F%2Fsecure.gravatar.com%2Favatar%2F70011b20cb9f511f8d13a389a1cc37f0%3Fd%3Dmm%26s%3D32%26noRedirect%3Dtrue"
            },
            "displayName": "Colin Hesketh",
            "active": true,
            "timeZone": "Asia/Bangkok"
          },
          "body": "[~achechko], [~aivanchikov]\r\nI tested on this site:\r\n\r\nhttps://exc.applicintsuite.com/ExpressComplete\r\n\r\nI was logged in as Admin if that makes a difference",
          "updateAuthor": {
            "self": "https://applicint-usa.atlassian.net/rest/api/2/user?accountId=557058%3A664e4f9d-dbb1-4e13-9d6b-bb9ba14cb8b1",
            "name": "chesketh",
            "key": "chesketh",
            "accountId": "557058:664e4f9d-dbb1-4e13-9d6b-bb9ba14cb8b1",
            "emailAddress": "chesketh@applicint-usa.com",
            "avatarUrls": {
              "48x48": "https://avatar-cdn.atlassian.com/70011b20cb9f511f8d13a389a1cc37f0?s=48&d=https%3A%2F%2Fsecure.gravatar.com%2Favatar%2F70011b20cb9f511f8d13a389a1cc37f0%3Fd%3Dmm%26s%3D48%26noRedirect%3Dtrue",
              "24x24": "https://avatar-cdn.atlassian.com/70011b20cb9f511f8d13a389a1cc37f0?s=24&d=https%3A%2F%2Fsecure.gravatar.com%2Favatar%2F70011b20cb9f511f8d13a389a1cc37f0%3Fd%3Dmm%26s%3D24%26noRedirect%3Dtrue",
              "16x16": "https://avatar-cdn.atlassian.com/70011b20cb9f511f8d13a389a1cc37f0?s=16&d=https%3A%2F%2Fsecure.gravatar.com%2Favatar%2F70011b20cb9f511f8d13a389a1cc37f0%3Fd%3Dmm%26s%3D16%26noRedirect%3Dtrue",
              "32x32": "https://avatar-cdn.atlassian.com/70011b20cb9f511f8d13a389a1cc37f0?s=32&d=https%3A%2F%2Fsecure.gravatar.com%2Favatar%2F70011b20cb9f511f8d13a389a1cc37f0%3Fd%3Dmm%26s%3D32%26noRedirect%3Dtrue"
            },
            "displayName": "Colin Hesketh",
            "active": true,
            "timeZone": "Asia/Bangkok"
          },
          "created": "2018-04-25T03:53:26.988-0700",
          "updated": "2018-04-25T03:53:26.988-0700",
          "jsdPublic": true
        },
        {
          "self": "https://applicint-usa.atlassian.net/rest/api/2/issue/10742/comment/12854",
          "id": "12854",
          "author": {
            "self": "https://applicint-usa.atlassian.net/rest/api/2/user?accountId=557058%3A1d78dd6f-24e8-4f1a-92b4-c344d4da789f",
            "name": "achechko",
            "key": "achechko",
            "accountId": "557058:1d78dd6f-24e8-4f1a-92b4-c344d4da789f",
            "emailAddress": "achechko@applicint-usa.com",
            "avatarUrls": {
              "48x48": "https://avatar-cdn.atlassian.com/5827cc69e54dc089ed1cbc2a0f0e9d90?s=48&d=https%3A%2F%2Fsecure.gravatar.com%2Favatar%2F5827cc69e54dc089ed1cbc2a0f0e9d90%3Fd%3Dmm%26s%3D48%26noRedirect%3Dtrue",
              "24x24": "https://avatar-cdn.atlassian.com/5827cc69e54dc089ed1cbc2a0f0e9d90?s=24&d=https%3A%2F%2Fsecure.gravatar.com%2Favatar%2F5827cc69e54dc089ed1cbc2a0f0e9d90%3Fd%3Dmm%26s%3D24%26noRedirect%3Dtrue",
              "16x16": "https://avatar-cdn.atlassian.com/5827cc69e54dc089ed1cbc2a0f0e9d90?s=16&d=https%3A%2F%2Fsecure.gravatar.com%2Favatar%2F5827cc69e54dc089ed1cbc2a0f0e9d90%3Fd%3Dmm%26s%3D16%26noRedirect%3Dtrue",
              "32x32": "https://avatar-cdn.atlassian.com/5827cc69e54dc089ed1cbc2a0f0e9d90?s=32&d=https%3A%2F%2Fsecure.gravatar.com%2Favatar%2F5827cc69e54dc089ed1cbc2a0f0e9d90%3Fd%3Dmm%26s%3D32%26noRedirect%3Dtrue"
            },
            "displayName": "Anzhelika Chechko",
            "active": true,
            "timeZone": "Europe/Minsk"
          },
          "body": "Hello [~chesketh]\r\nIt seems you tested the \"Quick Quote\" page. However this issue is about \"External Interfaces\" logic. It is ExC web-service. It allows creating tickets on ExC side which were calculated on Client side.\r\nTo test this issue you need to send XML request to ExC Web-service and check XML response.\r\nEsignIntegrator tool contains client stub to check it (please see the \"Express Complete External Ticket\" page). Does it make sense?\r\n\r\nAlso we have an additional question about EI tool. At this moment this tool has logic for CC and ExC both sides. We suggest moving ExC logic to separate \"ExC_Helper\" tool. Will it work? Could you please approve it?",
          "updateAuthor": {
            "self": "https://applicint-usa.atlassian.net/rest/api/2/user?accountId=557058%3A1d78dd6f-24e8-4f1a-92b4-c344d4da789f",
            "name": "achechko",
            "key": "achechko",
            "accountId": "557058:1d78dd6f-24e8-4f1a-92b4-c344d4da789f",
            "emailAddress": "achechko@applicint-usa.com",
            "avatarUrls": {
              "48x48": "https://avatar-cdn.atlassian.com/5827cc69e54dc089ed1cbc2a0f0e9d90?s=48&d=https%3A%2F%2Fsecure.gravatar.com%2Favatar%2F5827cc69e54dc089ed1cbc2a0f0e9d90%3Fd%3Dmm%26s%3D48%26noRedirect%3Dtrue",
              "24x24": "https://avatar-cdn.atlassian.com/5827cc69e54dc089ed1cbc2a0f0e9d90?s=24&d=https%3A%2F%2Fsecure.gravatar.com%2Favatar%2F5827cc69e54dc089ed1cbc2a0f0e9d90%3Fd%3Dmm%26s%3D24%26noRedirect%3Dtrue",
              "16x16": "https://avatar-cdn.atlassian.com/5827cc69e54dc089ed1cbc2a0f0e9d90?s=16&d=https%3A%2F%2Fsecure.gravatar.com%2Favatar%2F5827cc69e54dc089ed1cbc2a0f0e9d90%3Fd%3Dmm%26s%3D16%26noRedirect%3Dtrue",
              "32x32": "https://avatar-cdn.atlassian.com/5827cc69e54dc089ed1cbc2a0f0e9d90?s=32&d=https%3A%2F%2Fsecure.gravatar.com%2Favatar%2F5827cc69e54dc089ed1cbc2a0f0e9d90%3Fd%3Dmm%26s%3D32%26noRedirect%3Dtrue"
            },
            "displayName": "Anzhelika Chechko",
            "active": true,
            "timeZone": "Europe/Minsk"
          },
          "created": "2018-04-25T06:01:25.425-0700",
          "updated": "2018-04-25T06:01:25.425-0700",
          "jsdPublic": true
        },
        {
          "self": "https://applicint-usa.atlassian.net/rest/api/2/issue/10742/comment/12943",
          "id": "12943",
          "author": {
            "self": "https://applicint-usa.atlassian.net/rest/api/2/user?accountId=557058%3A1d78dd6f-24e8-4f1a-92b4-c344d4da789f",
            "name": "achechko",
            "key": "achechko",
            "accountId": "557058:1d78dd6f-24e8-4f1a-92b4-c344d4da789f",
            "emailAddress": "achechko@applicint-usa.com",
            "avatarUrls": {
              "48x48": "https://avatar-cdn.atlassian.com/5827cc69e54dc089ed1cbc2a0f0e9d90?s=48&d=https%3A%2F%2Fsecure.gravatar.com%2Favatar%2F5827cc69e54dc089ed1cbc2a0f0e9d90%3Fd%3Dmm%26s%3D48%26noRedirect%3Dtrue",
              "24x24": "https://avatar-cdn.atlassian.com/5827cc69e54dc089ed1cbc2a0f0e9d90?s=24&d=https%3A%2F%2Fsecure.gravatar.com%2Favatar%2F5827cc69e54dc089ed1cbc2a0f0e9d90%3Fd%3Dmm%26s%3D24%26noRedirect%3Dtrue",
              "16x16": "https://avatar-cdn.atlassian.com/5827cc69e54dc089ed1cbc2a0f0e9d90?s=16&d=https%3A%2F%2Fsecure.gravatar.com%2Favatar%2F5827cc69e54dc089ed1cbc2a0f0e9d90%3Fd%3Dmm%26s%3D16%26noRedirect%3Dtrue",
              "32x32": "https://avatar-cdn.atlassian.com/5827cc69e54dc089ed1cbc2a0f0e9d90?s=32&d=https%3A%2F%2Fsecure.gravatar.com%2Favatar%2F5827cc69e54dc089ed1cbc2a0f0e9d90%3Fd%3Dmm%26s%3D32%26noRedirect%3Dtrue"
            },
            "displayName": "Anzhelika Chechko",
            "active": true,
            "timeZone": "Europe/Minsk"
          },
          "body": "Hello [~chesketh],\r\nHave you had a chance to review our details above?\r\nWe are waiting for approve for moving specific ExC logic from EI tool to separate one to allow logic usage by Elilink team in the future.\r\n\r\n[~aivanchikov] FYI",
          "updateAuthor": {
            "self": "https://applicint-usa.atlassian.net/rest/api/2/user?accountId=557058%3A1d78dd6f-24e8-4f1a-92b4-c344d4da789f",
            "name": "achechko",
            "key": "achechko",
            "accountId": "557058:1d78dd6f-24e8-4f1a-92b4-c344d4da789f",
            "emailAddress": "achechko@applicint-usa.com",
            "avatarUrls": {
              "48x48": "https://avatar-cdn.atlassian.com/5827cc69e54dc089ed1cbc2a0f0e9d90?s=48&d=https%3A%2F%2Fsecure.gravatar.com%2Favatar%2F5827cc69e54dc089ed1cbc2a0f0e9d90%3Fd%3Dmm%26s%3D48%26noRedirect%3Dtrue",
              "24x24": "https://avatar-cdn.atlassian.com/5827cc69e54dc089ed1cbc2a0f0e9d90?s=24&d=https%3A%2F%2Fsecure.gravatar.com%2Favatar%2F5827cc69e54dc089ed1cbc2a0f0e9d90%3Fd%3Dmm%26s%3D24%26noRedirect%3Dtrue",
              "16x16": "https://avatar-cdn.atlassian.com/5827cc69e54dc089ed1cbc2a0f0e9d90?s=16&d=https%3A%2F%2Fsecure.gravatar.com%2Favatar%2F5827cc69e54dc089ed1cbc2a0f0e9d90%3Fd%3Dmm%26s%3D16%26noRedirect%3Dtrue",
              "32x32": "https://avatar-cdn.atlassian.com/5827cc69e54dc089ed1cbc2a0f0e9d90?s=32&d=https%3A%2F%2Fsecure.gravatar.com%2Favatar%2F5827cc69e54dc089ed1cbc2a0f0e9d90%3Fd%3Dmm%26s%3D32%26noRedirect%3Dtrue"
            },
            "displayName": "Anzhelika Chechko",
            "active": true,
            "timeZone": "Europe/Minsk"
          },
          "created": "2018-04-26T01:49:10.948-0700",
          "updated": "2018-04-26T01:49:31.524-0700",
          "jsdPublic": true
        },
        {
          "self": "https://applicint-usa.atlassian.net/rest/api/2/issue/10742/comment/13604",
          "id": "13604",
          "author": {
            "self": "https://applicint-usa.atlassian.net/rest/api/2/user?accountId=557058%3A1d78dd6f-24e8-4f1a-92b4-c344d4da789f",
            "name": "achechko",
            "key": "achechko",
            "accountId": "557058:1d78dd6f-24e8-4f1a-92b4-c344d4da789f",
            "emailAddress": "achechko@applicint-usa.com",
            "avatarUrls": {
              "48x48": "https://avatar-cdn.atlassian.com/5827cc69e54dc089ed1cbc2a0f0e9d90?s=48&d=https%3A%2F%2Fsecure.gravatar.com%2Favatar%2F5827cc69e54dc089ed1cbc2a0f0e9d90%3Fd%3Dmm%26s%3D48%26noRedirect%3Dtrue",
              "24x24": "https://avatar-cdn.atlassian.com/5827cc69e54dc089ed1cbc2a0f0e9d90?s=24&d=https%3A%2F%2Fsecure.gravatar.com%2Favatar%2F5827cc69e54dc089ed1cbc2a0f0e9d90%3Fd%3Dmm%26s%3D24%26noRedirect%3Dtrue",
              "16x16": "https://avatar-cdn.atlassian.com/5827cc69e54dc089ed1cbc2a0f0e9d90?s=16&d=https%3A%2F%2Fsecure.gravatar.com%2Favatar%2F5827cc69e54dc089ed1cbc2a0f0e9d90%3Fd%3Dmm%26s%3D16%26noRedirect%3Dtrue",
              "32x32": "https://avatar-cdn.atlassian.com/5827cc69e54dc089ed1cbc2a0f0e9d90?s=32&d=https%3A%2F%2Fsecure.gravatar.com%2Favatar%2F5827cc69e54dc089ed1cbc2a0f0e9d90%3Fd%3Dmm%26s%3D32%26noRedirect%3Dtrue"
            },
            "displayName": "Anzhelika Chechko",
            "active": true,
            "timeZone": "Europe/Minsk"
          },
          "body": "Hello [~chesketh],\r\nDo you have any updates about our question about EI tool above?",
          "updateAuthor": {
            "self": "https://applicint-usa.atlassian.net/rest/api/2/user?accountId=557058%3A1d78dd6f-24e8-4f1a-92b4-c344d4da789f",
            "name": "achechko",
            "key": "achechko",
            "accountId": "557058:1d78dd6f-24e8-4f1a-92b4-c344d4da789f",
            "emailAddress": "achechko@applicint-usa.com",
            "avatarUrls": {
              "48x48": "https://avatar-cdn.atlassian.com/5827cc69e54dc089ed1cbc2a0f0e9d90?s=48&d=https%3A%2F%2Fsecure.gravatar.com%2Favatar%2F5827cc69e54dc089ed1cbc2a0f0e9d90%3Fd%3Dmm%26s%3D48%26noRedirect%3Dtrue",
              "24x24": "https://avatar-cdn.atlassian.com/5827cc69e54dc089ed1cbc2a0f0e9d90?s=24&d=https%3A%2F%2Fsecure.gravatar.com%2Favatar%2F5827cc69e54dc089ed1cbc2a0f0e9d90%3Fd%3Dmm%26s%3D24%26noRedirect%3Dtrue",
              "16x16": "https://avatar-cdn.atlassian.com/5827cc69e54dc089ed1cbc2a0f0e9d90?s=16&d=https%3A%2F%2Fsecure.gravatar.com%2Favatar%2F5827cc69e54dc089ed1cbc2a0f0e9d90%3Fd%3Dmm%26s%3D16%26noRedirect%3Dtrue",
              "32x32": "https://avatar-cdn.atlassian.com/5827cc69e54dc089ed1cbc2a0f0e9d90?s=32&d=https%3A%2F%2Fsecure.gravatar.com%2Favatar%2F5827cc69e54dc089ed1cbc2a0f0e9d90%3Fd%3Dmm%26s%3D32%26noRedirect%3Dtrue"
            },
            "displayName": "Anzhelika Chechko",
            "active": true,
            "timeZone": "Europe/Minsk"
          },
          "created": "2018-05-07T03:53:22.116-0700",
          "updated": "2018-05-07T03:53:22.116-0700",
          "jsdPublic": true
        },
        {
          "self": "https://applicint-usa.atlassian.net/rest/api/2/issue/10742/comment/14092",
          "id": "14092",
          "author": {
            "self": "https://applicint-usa.atlassian.net/rest/api/2/user?accountId=557058%3A1d78dd6f-24e8-4f1a-92b4-c344d4da789f",
            "name": "achechko",
            "key": "achechko",
            "accountId": "557058:1d78dd6f-24e8-4f1a-92b4-c344d4da789f",
            "emailAddress": "achechko@applicint-usa.com",
            "avatarUrls": {
              "48x48": "https://avatar-cdn.atlassian.com/5827cc69e54dc089ed1cbc2a0f0e9d90?s=48&d=https%3A%2F%2Fsecure.gravatar.com%2Favatar%2F5827cc69e54dc089ed1cbc2a0f0e9d90%3Fd%3Dmm%26s%3D48%26noRedirect%3Dtrue",
              "24x24": "https://avatar-cdn.atlassian.com/5827cc69e54dc089ed1cbc2a0f0e9d90?s=24&d=https%3A%2F%2Fsecure.gravatar.com%2Favatar%2F5827cc69e54dc089ed1cbc2a0f0e9d90%3Fd%3Dmm%26s%3D24%26noRedirect%3Dtrue",
              "16x16": "https://avatar-cdn.atlassian.com/5827cc69e54dc089ed1cbc2a0f0e9d90?s=16&d=https%3A%2F%2Fsecure.gravatar.com%2Favatar%2F5827cc69e54dc089ed1cbc2a0f0e9d90%3Fd%3Dmm%26s%3D16%26noRedirect%3Dtrue",
              "32x32": "https://avatar-cdn.atlassian.com/5827cc69e54dc089ed1cbc2a0f0e9d90?s=32&d=https%3A%2F%2Fsecure.gravatar.com%2Favatar%2F5827cc69e54dc089ed1cbc2a0f0e9d90%3Fd%3Dmm%26s%3D32%26noRedirect%3Dtrue"
            },
            "displayName": "Anzhelika Chechko",
            "active": true,
            "timeZone": "Europe/Minsk"
          },
          "body": "Hello [~chesketh],\r\nPlease pay attention:\r\nWe still waiting for \"go ahead\" for moving ExC specific logic from EI tool to separate instance.",
          "updateAuthor": {
            "self": "https://applicint-usa.atlassian.net/rest/api/2/user?accountId=557058%3A1d78dd6f-24e8-4f1a-92b4-c344d4da789f",
            "name": "achechko",
            "key": "achechko",
            "accountId": "557058:1d78dd6f-24e8-4f1a-92b4-c344d4da789f",
            "emailAddress": "achechko@applicint-usa.com",
            "avatarUrls": {
              "48x48": "https://avatar-cdn.atlassian.com/5827cc69e54dc089ed1cbc2a0f0e9d90?s=48&d=https%3A%2F%2Fsecure.gravatar.com%2Favatar%2F5827cc69e54dc089ed1cbc2a0f0e9d90%3Fd%3Dmm%26s%3D48%26noRedirect%3Dtrue",
              "24x24": "https://avatar-cdn.atlassian.com/5827cc69e54dc089ed1cbc2a0f0e9d90?s=24&d=https%3A%2F%2Fsecure.gravatar.com%2Favatar%2F5827cc69e54dc089ed1cbc2a0f0e9d90%3Fd%3Dmm%26s%3D24%26noRedirect%3Dtrue",
              "16x16": "https://avatar-cdn.atlassian.com/5827cc69e54dc089ed1cbc2a0f0e9d90?s=16&d=https%3A%2F%2Fsecure.gravatar.com%2Favatar%2F5827cc69e54dc089ed1cbc2a0f0e9d90%3Fd%3Dmm%26s%3D16%26noRedirect%3Dtrue",
              "32x32": "https://avatar-cdn.atlassian.com/5827cc69e54dc089ed1cbc2a0f0e9d90?s=32&d=https%3A%2F%2Fsecure.gravatar.com%2Favatar%2F5827cc69e54dc089ed1cbc2a0f0e9d90%3Fd%3Dmm%26s%3D32%26noRedirect%3Dtrue"
            },
            "displayName": "Anzhelika Chechko",
            "active": true,
            "timeZone": "Europe/Minsk"
          },
          "created": "2018-05-15T08:40:41.827-0700",
          "updated": "2018-05-15T08:40:41.827-0700",
          "jsdPublic": true
        },
        {
          "self": "https://applicint-usa.atlassian.net/rest/api/2/issue/10742/comment/14409",
          "id": "14409",
          "author": {
            "self": "https://applicint-usa.atlassian.net/rest/api/2/user?accountId=557058%3A664e4f9d-dbb1-4e13-9d6b-bb9ba14cb8b1",
            "name": "chesketh",
            "key": "chesketh",
            "accountId": "557058:664e4f9d-dbb1-4e13-9d6b-bb9ba14cb8b1",
            "emailAddress": "chesketh@applicint-usa.com",
            "avatarUrls": {
              "48x48": "https://avatar-cdn.atlassian.com/70011b20cb9f511f8d13a389a1cc37f0?s=48&d=https%3A%2F%2Fsecure.gravatar.com%2Favatar%2F70011b20cb9f511f8d13a389a1cc37f0%3Fd%3Dmm%26s%3D48%26noRedirect%3Dtrue",
              "24x24": "https://avatar-cdn.atlassian.com/70011b20cb9f511f8d13a389a1cc37f0?s=24&d=https%3A%2F%2Fsecure.gravatar.com%2Favatar%2F70011b20cb9f511f8d13a389a1cc37f0%3Fd%3Dmm%26s%3D24%26noRedirect%3Dtrue",
              "16x16": "https://avatar-cdn.atlassian.com/70011b20cb9f511f8d13a389a1cc37f0?s=16&d=https%3A%2F%2Fsecure.gravatar.com%2Favatar%2F70011b20cb9f511f8d13a389a1cc37f0%3Fd%3Dmm%26s%3D16%26noRedirect%3Dtrue",
              "32x32": "https://avatar-cdn.atlassian.com/70011b20cb9f511f8d13a389a1cc37f0?s=32&d=https%3A%2F%2Fsecure.gravatar.com%2Favatar%2F70011b20cb9f511f8d13a389a1cc37f0%3Fd%3Dmm%26s%3D32%26noRedirect%3Dtrue"
            },
            "displayName": "Colin Hesketh",
            "active": true,
            "timeZone": "Asia/Bangkok"
          },
          "body": "[~achechko], the separate instance of the E1 tool is approved",
          "updateAuthor": {
            "self": "https://applicint-usa.atlassian.net/rest/api/2/user?accountId=557058%3A664e4f9d-dbb1-4e13-9d6b-bb9ba14cb8b1",
            "name": "chesketh",
            "key": "chesketh",
            "accountId": "557058:664e4f9d-dbb1-4e13-9d6b-bb9ba14cb8b1",
            "emailAddress": "chesketh@applicint-usa.com",
            "avatarUrls": {
              "48x48": "https://avatar-cdn.atlassian.com/70011b20cb9f511f8d13a389a1cc37f0?s=48&d=https%3A%2F%2Fsecure.gravatar.com%2Favatar%2F70011b20cb9f511f8d13a389a1cc37f0%3Fd%3Dmm%26s%3D48%26noRedirect%3Dtrue",
              "24x24": "https://avatar-cdn.atlassian.com/70011b20cb9f511f8d13a389a1cc37f0?s=24&d=https%3A%2F%2Fsecure.gravatar.com%2Favatar%2F70011b20cb9f511f8d13a389a1cc37f0%3Fd%3Dmm%26s%3D24%26noRedirect%3Dtrue",
              "16x16": "https://avatar-cdn.atlassian.com/70011b20cb9f511f8d13a389a1cc37f0?s=16&d=https%3A%2F%2Fsecure.gravatar.com%2Favatar%2F70011b20cb9f511f8d13a389a1cc37f0%3Fd%3Dmm%26s%3D16%26noRedirect%3Dtrue",
              "32x32": "https://avatar-cdn.atlassian.com/70011b20cb9f511f8d13a389a1cc37f0?s=32&d=https%3A%2F%2Fsecure.gravatar.com%2Favatar%2F70011b20cb9f511f8d13a389a1cc37f0%3Fd%3Dmm%26s%3D32%26noRedirect%3Dtrue"
            },
            "displayName": "Colin Hesketh",
            "active": true,
            "timeZone": "Asia/Bangkok"
          },
          "created": "2018-05-21T07:38:44.153-0700",
          "updated": "2018-05-21T07:38:44.153-0700",
          "jsdPublic": true
        },
        {
          "self": "https://applicint-usa.atlassian.net/rest/api/2/issue/10742/comment/14416",
          "id": "14416",
          "author": {
            "self": "https://applicint-usa.atlassian.net/rest/api/2/user?accountId=557058%3A1d78dd6f-24e8-4f1a-92b4-c344d4da789f",
            "name": "achechko",
            "key": "achechko",
            "accountId": "557058:1d78dd6f-24e8-4f1a-92b4-c344d4da789f",
            "emailAddress": "achechko@applicint-usa.com",
            "avatarUrls": {
              "48x48": "https://avatar-cdn.atlassian.com/5827cc69e54dc089ed1cbc2a0f0e9d90?s=48&d=https%3A%2F%2Fsecure.gravatar.com%2Favatar%2F5827cc69e54dc089ed1cbc2a0f0e9d90%3Fd%3Dmm%26s%3D48%26noRedirect%3Dtrue",
              "24x24": "https://avatar-cdn.atlassian.com/5827cc69e54dc089ed1cbc2a0f0e9d90?s=24&d=https%3A%2F%2Fsecure.gravatar.com%2Favatar%2F5827cc69e54dc089ed1cbc2a0f0e9d90%3Fd%3Dmm%26s%3D24%26noRedirect%3Dtrue",
              "16x16": "https://avatar-cdn.atlassian.com/5827cc69e54dc089ed1cbc2a0f0e9d90?s=16&d=https%3A%2F%2Fsecure.gravatar.com%2Favatar%2F5827cc69e54dc089ed1cbc2a0f0e9d90%3Fd%3Dmm%26s%3D16%26noRedirect%3Dtrue",
              "32x32": "https://avatar-cdn.atlassian.com/5827cc69e54dc089ed1cbc2a0f0e9d90?s=32&d=https%3A%2F%2Fsecure.gravatar.com%2Favatar%2F5827cc69e54dc089ed1cbc2a0f0e9d90%3Fd%3Dmm%26s%3D32%26noRedirect%3Dtrue"
            },
            "displayName": "Anzhelika Chechko",
            "active": true,
            "timeZone": "Europe/Minsk"
          },
          "body": "Hello [~chesketh],\r\nOk, got it. New EX-256 issue was created.",
          "updateAuthor": {
            "self": "https://applicint-usa.atlassian.net/rest/api/2/user?accountId=557058%3A1d78dd6f-24e8-4f1a-92b4-c344d4da789f",
            "name": "achechko",
            "key": "achechko",
            "accountId": "557058:1d78dd6f-24e8-4f1a-92b4-c344d4da789f",
            "emailAddress": "achechko@applicint-usa.com",
            "avatarUrls": {
              "48x48": "https://avatar-cdn.atlassian.com/5827cc69e54dc089ed1cbc2a0f0e9d90?s=48&d=https%3A%2F%2Fsecure.gravatar.com%2Favatar%2F5827cc69e54dc089ed1cbc2a0f0e9d90%3Fd%3Dmm%26s%3D48%26noRedirect%3Dtrue",
              "24x24": "https://avatar-cdn.atlassian.com/5827cc69e54dc089ed1cbc2a0f0e9d90?s=24&d=https%3A%2F%2Fsecure.gravatar.com%2Favatar%2F5827cc69e54dc089ed1cbc2a0f0e9d90%3Fd%3Dmm%26s%3D24%26noRedirect%3Dtrue",
              "16x16": "https://avatar-cdn.atlassian.com/5827cc69e54dc089ed1cbc2a0f0e9d90?s=16&d=https%3A%2F%2Fsecure.gravatar.com%2Favatar%2F5827cc69e54dc089ed1cbc2a0f0e9d90%3Fd%3Dmm%26s%3D16%26noRedirect%3Dtrue",
              "32x32": "https://avatar-cdn.atlassian.com/5827cc69e54dc089ed1cbc2a0f0e9d90?s=32&d=https%3A%2F%2Fsecure.gravatar.com%2Favatar%2F5827cc69e54dc089ed1cbc2a0f0e9d90%3Fd%3Dmm%26s%3D32%26noRedirect%3Dtrue"
            },
            "displayName": "Anzhelika Chechko",
            "active": true,
            "timeZone": "Europe/Minsk"
          },
          "created": "2018-05-21T08:08:41.213-0700",
          "updated": "2018-05-21T08:08:41.213-0700",
          "jsdPublic": true
        }
      ],
      "maxResults": 9,
      "total": 9,
      "startAt": 0
    },
    "votes": {
      "self": "https://applicint-usa.atlassian.net/rest/api/2/issue/EX-85/votes",
      "votes": 0,
      "hasVoted": false
    },
    "worklog": {
      "startAt": 0,
      "maxResults": 20,
      "total": 6,
      "worklogs": [
        {
          "self": "https://applicint-usa.atlassian.net/rest/api/2/issue/10742/worklog/10640",
          "author": {
            "self": "https://applicint-usa.atlassian.net/rest/api/2/user?accountId=5aa002c97cbc742a5c1e239c",
            "name": "aivanchikov",
            "key": "aivanchikov",
            "accountId": "5aa002c97cbc742a5c1e239c",
            "emailAddress": "aivanchikov@elilink.com",
            "avatarUrls": {
              "48x48": "https://avatar-cdn.atlassian.com/f53a90df737345fc8ea08915b39df633?s=48&d=https%3A%2F%2Fsecure.gravatar.com%2Favatar%2Ff53a90df737345fc8ea08915b39df633%3Fd%3Dmm%26s%3D48%26noRedirect%3Dtrue",
              "24x24": "https://avatar-cdn.atlassian.com/f53a90df737345fc8ea08915b39df633?s=24&d=https%3A%2F%2Fsecure.gravatar.com%2Favatar%2Ff53a90df737345fc8ea08915b39df633%3Fd%3Dmm%26s%3D24%26noRedirect%3Dtrue",
              "16x16": "https://avatar-cdn.atlassian.com/f53a90df737345fc8ea08915b39df633?s=16&d=https%3A%2F%2Fsecure.gravatar.com%2Favatar%2Ff53a90df737345fc8ea08915b39df633%3Fd%3Dmm%26s%3D16%26noRedirect%3Dtrue",
              "32x32": "https://avatar-cdn.atlassian.com/f53a90df737345fc8ea08915b39df633?s=32&d=https%3A%2F%2Fsecure.gravatar.com%2Favatar%2Ff53a90df737345fc8ea08915b39df633%3Fd%3Dmm%26s%3D32%26noRedirect%3Dtrue"
            },
            "displayName": "Alexander Ivanchikov",
            "active": true,
            "timeZone": "Asia/Ho_Chi_Minh"
          },
          "updateAuthor": {
            "self": "https://applicint-usa.atlassian.net/rest/api/2/user?accountId=5aa002c97cbc742a5c1e239c",
            "name": "aivanchikov",
            "key": "aivanchikov",
            "accountId": "5aa002c97cbc742a5c1e239c",
            "emailAddress": "aivanchikov@elilink.com",
            "avatarUrls": {
              "48x48": "https://avatar-cdn.atlassian.com/f53a90df737345fc8ea08915b39df633?s=48&d=https%3A%2F%2Fsecure.gravatar.com%2Favatar%2Ff53a90df737345fc8ea08915b39df633%3Fd%3Dmm%26s%3D48%26noRedirect%3Dtrue",
              "24x24": "https://avatar-cdn.atlassian.com/f53a90df737345fc8ea08915b39df633?s=24&d=https%3A%2F%2Fsecure.gravatar.com%2Favatar%2Ff53a90df737345fc8ea08915b39df633%3Fd%3Dmm%26s%3D24%26noRedirect%3Dtrue",
              "16x16": "https://avatar-cdn.atlassian.com/f53a90df737345fc8ea08915b39df633?s=16&d=https%3A%2F%2Fsecure.gravatar.com%2Favatar%2Ff53a90df737345fc8ea08915b39df633%3Fd%3Dmm%26s%3D16%26noRedirect%3Dtrue",
              "32x32": "https://avatar-cdn.atlassian.com/f53a90df737345fc8ea08915b39df633?s=32&d=https%3A%2F%2Fsecure.gravatar.com%2Favatar%2Ff53a90df737345fc8ea08915b39df633%3Fd%3Dmm%26s%3D32%26noRedirect%3Dtrue"
            },
            "displayName": "Alexander Ivanchikov",
            "active": true,
            "timeZone": "Asia/Ho_Chi_Minh"
          },
          "created": "2018-04-02T07:50:40.463-0700",
          "updated": "2018-04-02T07:50:40.463-0700",
          "started": "2018-04-02T07:50:00.000-0700",
          "timeSpent": "2h",
          "timeSpentSeconds": 7200,
          "id": "10640",
          "issueId": "10742"
        },
        {
          "self": "https://applicint-usa.atlassian.net/rest/api/2/issue/10742/worklog/10721",
          "author": {
            "self": "https://applicint-usa.atlassian.net/rest/api/2/user?accountId=5aa002c97cbc742a5c1e239c",
            "name": "aivanchikov",
            "key": "aivanchikov",
            "accountId": "5aa002c97cbc742a5c1e239c",
            "emailAddress": "aivanchikov@elilink.com",
            "avatarUrls": {
              "48x48": "https://avatar-cdn.atlassian.com/f53a90df737345fc8ea08915b39df633?s=48&d=https%3A%2F%2Fsecure.gravatar.com%2Favatar%2Ff53a90df737345fc8ea08915b39df633%3Fd%3Dmm%26s%3D48%26noRedirect%3Dtrue",
              "24x24": "https://avatar-cdn.atlassian.com/f53a90df737345fc8ea08915b39df633?s=24&d=https%3A%2F%2Fsecure.gravatar.com%2Favatar%2Ff53a90df737345fc8ea08915b39df633%3Fd%3Dmm%26s%3D24%26noRedirect%3Dtrue",
              "16x16": "https://avatar-cdn.atlassian.com/f53a90df737345fc8ea08915b39df633?s=16&d=https%3A%2F%2Fsecure.gravatar.com%2Favatar%2Ff53a90df737345fc8ea08915b39df633%3Fd%3Dmm%26s%3D16%26noRedirect%3Dtrue",
              "32x32": "https://avatar-cdn.atlassian.com/f53a90df737345fc8ea08915b39df633?s=32&d=https%3A%2F%2Fsecure.gravatar.com%2Favatar%2Ff53a90df737345fc8ea08915b39df633%3Fd%3Dmm%26s%3D32%26noRedirect%3Dtrue"
            },
            "displayName": "Alexander Ivanchikov",
            "active": true,
            "timeZone": "Asia/Ho_Chi_Minh"
          },
          "updateAuthor": {
            "self": "https://applicint-usa.atlassian.net/rest/api/2/user?accountId=5aa002c97cbc742a5c1e239c",
            "name": "aivanchikov",
            "key": "aivanchikov",
            "accountId": "5aa002c97cbc742a5c1e239c",
            "emailAddress": "aivanchikov@elilink.com",
            "avatarUrls": {
              "48x48": "https://avatar-cdn.atlassian.com/f53a90df737345fc8ea08915b39df633?s=48&d=https%3A%2F%2Fsecure.gravatar.com%2Favatar%2Ff53a90df737345fc8ea08915b39df633%3Fd%3Dmm%26s%3D48%26noRedirect%3Dtrue",
              "24x24": "https://avatar-cdn.atlassian.com/f53a90df737345fc8ea08915b39df633?s=24&d=https%3A%2F%2Fsecure.gravatar.com%2Favatar%2Ff53a90df737345fc8ea08915b39df633%3Fd%3Dmm%26s%3D24%26noRedirect%3Dtrue",
              "16x16": "https://avatar-cdn.atlassian.com/f53a90df737345fc8ea08915b39df633?s=16&d=https%3A%2F%2Fsecure.gravatar.com%2Favatar%2Ff53a90df737345fc8ea08915b39df633%3Fd%3Dmm%26s%3D16%26noRedirect%3Dtrue",
              "32x32": "https://avatar-cdn.atlassian.com/f53a90df737345fc8ea08915b39df633?s=32&d=https%3A%2F%2Fsecure.gravatar.com%2Favatar%2Ff53a90df737345fc8ea08915b39df633%3Fd%3Dmm%26s%3D32%26noRedirect%3Dtrue"
            },
            "displayName": "Alexander Ivanchikov",
            "active": true,
            "timeZone": "Asia/Ho_Chi_Minh"
          },
          "created": "2018-04-04T08:49:12.397-0700",
          "updated": "2018-04-04T08:49:12.397-0700",
          "started": "2018-04-03T08:49:00.000-0700",
          "timeSpent": "5h",
          "timeSpentSeconds": 18000,
          "id": "10721",
          "issueId": "10742"
        },
        {
          "self": "https://applicint-usa.atlassian.net/rest/api/2/issue/10742/worklog/10722",
          "author": {
            "self": "https://applicint-usa.atlassian.net/rest/api/2/user?accountId=5aa002c97cbc742a5c1e239c",
            "name": "aivanchikov",
            "key": "aivanchikov",
            "accountId": "5aa002c97cbc742a5c1e239c",
            "emailAddress": "aivanchikov@elilink.com",
            "avatarUrls": {
              "48x48": "https://avatar-cdn.atlassian.com/f53a90df737345fc8ea08915b39df633?s=48&d=https%3A%2F%2Fsecure.gravatar.com%2Favatar%2Ff53a90df737345fc8ea08915b39df633%3Fd%3Dmm%26s%3D48%26noRedirect%3Dtrue",
              "24x24": "https://avatar-cdn.atlassian.com/f53a90df737345fc8ea08915b39df633?s=24&d=https%3A%2F%2Fsecure.gravatar.com%2Favatar%2Ff53a90df737345fc8ea08915b39df633%3Fd%3Dmm%26s%3D24%26noRedirect%3Dtrue",
              "16x16": "https://avatar-cdn.atlassian.com/f53a90df737345fc8ea08915b39df633?s=16&d=https%3A%2F%2Fsecure.gravatar.com%2Favatar%2Ff53a90df737345fc8ea08915b39df633%3Fd%3Dmm%26s%3D16%26noRedirect%3Dtrue",
              "32x32": "https://avatar-cdn.atlassian.com/f53a90df737345fc8ea08915b39df633?s=32&d=https%3A%2F%2Fsecure.gravatar.com%2Favatar%2Ff53a90df737345fc8ea08915b39df633%3Fd%3Dmm%26s%3D32%26noRedirect%3Dtrue"
            },
            "displayName": "Alexander Ivanchikov",
            "active": true,
            "timeZone": "Asia/Ho_Chi_Minh"
          },
          "updateAuthor": {
            "self": "https://applicint-usa.atlassian.net/rest/api/2/user?accountId=5aa002c97cbc742a5c1e239c",
            "name": "aivanchikov",
            "key": "aivanchikov",
            "accountId": "5aa002c97cbc742a5c1e239c",
            "emailAddress": "aivanchikov@elilink.com",
            "avatarUrls": {
              "48x48": "https://avatar-cdn.atlassian.com/f53a90df737345fc8ea08915b39df633?s=48&d=https%3A%2F%2Fsecure.gravatar.com%2Favatar%2Ff53a90df737345fc8ea08915b39df633%3Fd%3Dmm%26s%3D48%26noRedirect%3Dtrue",
              "24x24": "https://avatar-cdn.atlassian.com/f53a90df737345fc8ea08915b39df633?s=24&d=https%3A%2F%2Fsecure.gravatar.com%2Favatar%2Ff53a90df737345fc8ea08915b39df633%3Fd%3Dmm%26s%3D24%26noRedirect%3Dtrue",
              "16x16": "https://avatar-cdn.atlassian.com/f53a90df737345fc8ea08915b39df633?s=16&d=https%3A%2F%2Fsecure.gravatar.com%2Favatar%2Ff53a90df737345fc8ea08915b39df633%3Fd%3Dmm%26s%3D16%26noRedirect%3Dtrue",
              "32x32": "https://avatar-cdn.atlassian.com/f53a90df737345fc8ea08915b39df633?s=32&d=https%3A%2F%2Fsecure.gravatar.com%2Favatar%2Ff53a90df737345fc8ea08915b39df633%3Fd%3Dmm%26s%3D32%26noRedirect%3Dtrue"
            },
            "displayName": "Alexander Ivanchikov",
            "active": true,
            "timeZone": "Asia/Ho_Chi_Minh"
          },
          "created": "2018-04-04T08:49:26.104-0700",
          "updated": "2018-04-04T08:49:26.104-0700",
          "started": "2018-04-04T08:49:00.000-0700",
          "timeSpent": "5h",
          "timeSpentSeconds": 18000,
          "id": "10722",
          "issueId": "10742"
        },
        {
          "self": "https://applicint-usa.atlassian.net/rest/api/2/issue/10742/worklog/10785",
          "author": {
            "self": "https://applicint-usa.atlassian.net/rest/api/2/user?accountId=5aa002c97cbc742a5c1e239c",
            "name": "aivanchikov",
            "key": "aivanchikov",
            "accountId": "5aa002c97cbc742a5c1e239c",
            "emailAddress": "aivanchikov@elilink.com",
            "avatarUrls": {
              "48x48": "https://avatar-cdn.atlassian.com/f53a90df737345fc8ea08915b39df633?s=48&d=https%3A%2F%2Fsecure.gravatar.com%2Favatar%2Ff53a90df737345fc8ea08915b39df633%3Fd%3Dmm%26s%3D48%26noRedirect%3Dtrue",
              "24x24": "https://avatar-cdn.atlassian.com/f53a90df737345fc8ea08915b39df633?s=24&d=https%3A%2F%2Fsecure.gravatar.com%2Favatar%2Ff53a90df737345fc8ea08915b39df633%3Fd%3Dmm%26s%3D24%26noRedirect%3Dtrue",
              "16x16": "https://avatar-cdn.atlassian.com/f53a90df737345fc8ea08915b39df633?s=16&d=https%3A%2F%2Fsecure.gravatar.com%2Favatar%2Ff53a90df737345fc8ea08915b39df633%3Fd%3Dmm%26s%3D16%26noRedirect%3Dtrue",
              "32x32": "https://avatar-cdn.atlassian.com/f53a90df737345fc8ea08915b39df633?s=32&d=https%3A%2F%2Fsecure.gravatar.com%2Favatar%2Ff53a90df737345fc8ea08915b39df633%3Fd%3Dmm%26s%3D32%26noRedirect%3Dtrue"
            },
            "displayName": "Alexander Ivanchikov",
            "active": true,
            "timeZone": "Asia/Ho_Chi_Minh"
          },
          "updateAuthor": {
            "self": "https://applicint-usa.atlassian.net/rest/api/2/user?accountId=5aa002c97cbc742a5c1e239c",
            "name": "aivanchikov",
            "key": "aivanchikov",
            "accountId": "5aa002c97cbc742a5c1e239c",
            "emailAddress": "aivanchikov@elilink.com",
            "avatarUrls": {
              "48x48": "https://avatar-cdn.atlassian.com/f53a90df737345fc8ea08915b39df633?s=48&d=https%3A%2F%2Fsecure.gravatar.com%2Favatar%2Ff53a90df737345fc8ea08915b39df633%3Fd%3Dmm%26s%3D48%26noRedirect%3Dtrue",
              "24x24": "https://avatar-cdn.atlassian.com/f53a90df737345fc8ea08915b39df633?s=24&d=https%3A%2F%2Fsecure.gravatar.com%2Favatar%2Ff53a90df737345fc8ea08915b39df633%3Fd%3Dmm%26s%3D24%26noRedirect%3Dtrue",
              "16x16": "https://avatar-cdn.atlassian.com/f53a90df737345fc8ea08915b39df633?s=16&d=https%3A%2F%2Fsecure.gravatar.com%2Favatar%2Ff53a90df737345fc8ea08915b39df633%3Fd%3Dmm%26s%3D16%26noRedirect%3Dtrue",
              "32x32": "https://avatar-cdn.atlassian.com/f53a90df737345fc8ea08915b39df633?s=32&d=https%3A%2F%2Fsecure.gravatar.com%2Favatar%2Ff53a90df737345fc8ea08915b39df633%3Fd%3Dmm%26s%3D32%26noRedirect%3Dtrue"
            },
            "displayName": "Alexander Ivanchikov",
            "active": true,
            "timeZone": "Asia/Ho_Chi_Minh"
          },
          "created": "2018-04-06T00:31:48.547-0700",
          "updated": "2018-04-06T00:31:48.547-0700",
          "started": "2018-04-05T00:31:00.000-0700",
          "timeSpent": "5h",
          "timeSpentSeconds": 18000,
          "id": "10785",
          "issueId": "10742"
        },
        {
          "self": "https://applicint-usa.atlassian.net/rest/api/2/issue/10742/worklog/10812",
          "author": {
            "self": "https://applicint-usa.atlassian.net/rest/api/2/user?accountId=5aa002c97cbc742a5c1e239c",
            "name": "aivanchikov",
            "key": "aivanchikov",
            "accountId": "5aa002c97cbc742a5c1e239c",
            "emailAddress": "aivanchikov@elilink.com",
            "avatarUrls": {
              "48x48": "https://avatar-cdn.atlassian.com/f53a90df737345fc8ea08915b39df633?s=48&d=https%3A%2F%2Fsecure.gravatar.com%2Favatar%2Ff53a90df737345fc8ea08915b39df633%3Fd%3Dmm%26s%3D48%26noRedirect%3Dtrue",
              "24x24": "https://avatar-cdn.atlassian.com/f53a90df737345fc8ea08915b39df633?s=24&d=https%3A%2F%2Fsecure.gravatar.com%2Favatar%2Ff53a90df737345fc8ea08915b39df633%3Fd%3Dmm%26s%3D24%26noRedirect%3Dtrue",
              "16x16": "https://avatar-cdn.atlassian.com/f53a90df737345fc8ea08915b39df633?s=16&d=https%3A%2F%2Fsecure.gravatar.com%2Favatar%2Ff53a90df737345fc8ea08915b39df633%3Fd%3Dmm%26s%3D16%26noRedirect%3Dtrue",
              "32x32": "https://avatar-cdn.atlassian.com/f53a90df737345fc8ea08915b39df633?s=32&d=https%3A%2F%2Fsecure.gravatar.com%2Favatar%2Ff53a90df737345fc8ea08915b39df633%3Fd%3Dmm%26s%3D32%26noRedirect%3Dtrue"
            },
            "displayName": "Alexander Ivanchikov",
            "active": true,
            "timeZone": "Asia/Ho_Chi_Minh"
          },
          "updateAuthor": {
            "self": "https://applicint-usa.atlassian.net/rest/api/2/user?accountId=5aa002c97cbc742a5c1e239c",
            "name": "aivanchikov",
            "key": "aivanchikov",
            "accountId": "5aa002c97cbc742a5c1e239c",
            "emailAddress": "aivanchikov@elilink.com",
            "avatarUrls": {
              "48x48": "https://avatar-cdn.atlassian.com/f53a90df737345fc8ea08915b39df633?s=48&d=https%3A%2F%2Fsecure.gravatar.com%2Favatar%2Ff53a90df737345fc8ea08915b39df633%3Fd%3Dmm%26s%3D48%26noRedirect%3Dtrue",
              "24x24": "https://avatar-cdn.atlassian.com/f53a90df737345fc8ea08915b39df633?s=24&d=https%3A%2F%2Fsecure.gravatar.com%2Favatar%2Ff53a90df737345fc8ea08915b39df633%3Fd%3Dmm%26s%3D24%26noRedirect%3Dtrue",
              "16x16": "https://avatar-cdn.atlassian.com/f53a90df737345fc8ea08915b39df633?s=16&d=https%3A%2F%2Fsecure.gravatar.com%2Favatar%2Ff53a90df737345fc8ea08915b39df633%3Fd%3Dmm%26s%3D16%26noRedirect%3Dtrue",
              "32x32": "https://avatar-cdn.atlassian.com/f53a90df737345fc8ea08915b39df633?s=32&d=https%3A%2F%2Fsecure.gravatar.com%2Favatar%2Ff53a90df737345fc8ea08915b39df633%3Fd%3Dmm%26s%3D32%26noRedirect%3Dtrue"
            },
            "displayName": "Alexander Ivanchikov",
            "active": true,
            "timeZone": "Asia/Ho_Chi_Minh"
          },
          "created": "2018-04-06T08:09:44.644-0700",
          "updated": "2018-04-06T08:09:44.644-0700",
          "started": "2018-04-06T08:09:00.000-0700",
          "timeSpent": "7h",
          "timeSpentSeconds": 25200,
          "id": "10812",
          "issueId": "10742"
        },
        {
          "self": "https://applicint-usa.atlassian.net/rest/api/2/issue/10742/worklog/10829",
          "author": {
            "self": "https://applicint-usa.atlassian.net/rest/api/2/user?accountId=5aa002c97cbc742a5c1e239c",
            "name": "aivanchikov",
            "key": "aivanchikov",
            "accountId": "5aa002c97cbc742a5c1e239c",
            "emailAddress": "aivanchikov@elilink.com",
            "avatarUrls": {
              "48x48": "https://avatar-cdn.atlassian.com/f53a90df737345fc8ea08915b39df633?s=48&d=https%3A%2F%2Fsecure.gravatar.com%2Favatar%2Ff53a90df737345fc8ea08915b39df633%3Fd%3Dmm%26s%3D48%26noRedirect%3Dtrue",
              "24x24": "https://avatar-cdn.atlassian.com/f53a90df737345fc8ea08915b39df633?s=24&d=https%3A%2F%2Fsecure.gravatar.com%2Favatar%2Ff53a90df737345fc8ea08915b39df633%3Fd%3Dmm%26s%3D24%26noRedirect%3Dtrue",
              "16x16": "https://avatar-cdn.atlassian.com/f53a90df737345fc8ea08915b39df633?s=16&d=https%3A%2F%2Fsecure.gravatar.com%2Favatar%2Ff53a90df737345fc8ea08915b39df633%3Fd%3Dmm%26s%3D16%26noRedirect%3Dtrue",
              "32x32": "https://avatar-cdn.atlassian.com/f53a90df737345fc8ea08915b39df633?s=32&d=https%3A%2F%2Fsecure.gravatar.com%2Favatar%2Ff53a90df737345fc8ea08915b39df633%3Fd%3Dmm%26s%3D32%26noRedirect%3Dtrue"
            },
            "displayName": "Alexander Ivanchikov",
            "active": true,
            "timeZone": "Asia/Ho_Chi_Minh"
          },
          "updateAuthor": {
            "self": "https://applicint-usa.atlassian.net/rest/api/2/user?accountId=5aa002c97cbc742a5c1e239c",
            "name": "aivanchikov",
            "key": "aivanchikov",
            "accountId": "5aa002c97cbc742a5c1e239c",
            "emailAddress": "aivanchikov@elilink.com",
            "avatarUrls": {
              "48x48": "https://avatar-cdn.atlassian.com/f53a90df737345fc8ea08915b39df633?s=48&d=https%3A%2F%2Fsecure.gravatar.com%2Favatar%2Ff53a90df737345fc8ea08915b39df633%3Fd%3Dmm%26s%3D48%26noRedirect%3Dtrue",
              "24x24": "https://avatar-cdn.atlassian.com/f53a90df737345fc8ea08915b39df633?s=24&d=https%3A%2F%2Fsecure.gravatar.com%2Favatar%2Ff53a90df737345fc8ea08915b39df633%3Fd%3Dmm%26s%3D24%26noRedirect%3Dtrue",
              "16x16": "https://avatar-cdn.atlassian.com/f53a90df737345fc8ea08915b39df633?s=16&d=https%3A%2F%2Fsecure.gravatar.com%2Favatar%2Ff53a90df737345fc8ea08915b39df633%3Fd%3Dmm%26s%3D16%26noRedirect%3Dtrue",
              "32x32": "https://avatar-cdn.atlassian.com/f53a90df737345fc8ea08915b39df633?s=32&d=https%3A%2F%2Fsecure.gravatar.com%2Favatar%2Ff53a90df737345fc8ea08915b39df633%3Fd%3Dmm%26s%3D32%26noRedirect%3Dtrue"
            },
            "displayName": "Alexander Ivanchikov",
            "active": true,
            "timeZone": "Asia/Ho_Chi_Minh"
          },
          "created": "2018-04-09T01:20:03.398-0700",
          "updated": "2018-04-09T01:20:03.398-0700",
          "started": "2018-04-09T01:19:00.000-0700",
          "timeSpent": "2h",
          "timeSpentSeconds": 7200,
          "id": "10829",
          "issueId": "10742"
        }
      ]
    }
  }
}