﻿{
  "expand": "description,lead,issueTypes,url,projectKeys",
  "self": "https://applicint-usa.atlassian.net/rest/api/2/project/10007",
  "id": "10007",
  "key": "EX",
  "description": "",
  "lead": {
    "self": "https://applicint-usa.atlassian.net/rest/api/2/user?accountId=557058:664e4f9d-dbb1-4e13-9d6b-bb9ba14cb8b1",
    "key": "chesketh",
    "accountId": "557058:664e4f9d-dbb1-4e13-9d6b-bb9ba14cb8b1",
    "name": "chesketh",
    "avatarUrls": {
      "16x16": "https://avatar-cdn.atlassian.com/70011b20cb9f511f8d13a389a1cc37f0?s=16&d=https%3A%2F%2Fsecure.gravatar.com%2Favatar%2F70011b20cb9f511f8d13a389a1cc37f0%3Fd%3Dmm%26s%3D16%26noRedirect%3Dtrue",
      "24x24": "https://avatar-cdn.atlassian.com/70011b20cb9f511f8d13a389a1cc37f0?s=24&d=https%3A%2F%2Fsecure.gravatar.com%2Favatar%2F70011b20cb9f511f8d13a389a1cc37f0%3Fd%3Dmm%26s%3D24%26noRedirect%3Dtrue",
      "32x32": "https://avatar-cdn.atlassian.com/70011b20cb9f511f8d13a389a1cc37f0?s=32&d=https%3A%2F%2Fsecure.gravatar.com%2Favatar%2F70011b20cb9f511f8d13a389a1cc37f0%3Fd%3Dmm%26s%3D32%26noRedirect%3Dtrue",
      "48x48": "https://avatar-cdn.atlassian.com/70011b20cb9f511f8d13a389a1cc37f0?s=48&d=https%3A%2F%2Fsecure.gravatar.com%2Favatar%2F70011b20cb9f511f8d13a389a1cc37f0%3Fd%3Dmm%26s%3D48%26noRedirect%3Dtrue"
    },
    "displayName": "Colin Hesketh",
    "active": true
  },
  "components": [
    {
      "self": "https://applicint-usa.atlassian.net/rest/api/2/component/10031",
      "id": "10031",
      "name": "Adaptive",
      "description": "An adaptive change can be triggered by changes to the operating system, hardware, software dependencies and even organizational business rules and policies.",
      "isAssigneeTypeValid": false
    },
    {
      "self": "https://applicint-usa.atlassian.net/rest/api/2/component/10030",
      "id": "10030",
      "name": "Corrective",
      "description": "Corrective change, most commonly referred to as “bugs,” is the most typical change associated with maintenance work.",
      "isAssigneeTypeValid": false
    },
    {
      "self": "https://applicint-usa.atlassian.net/rest/api/2/component/10012",
      "id": "10012",
      "name": "External Request",
      "description": "External requests proposed by the client or vendor.  May or may not be funded.",
      "isAssigneeTypeValid": false
    },
    {
      "self": "https://applicint-usa.atlassian.net/rest/api/2/component/10011",
      "id": "10011",
      "name": "Internal Request",
      "description": "Internal requests proposed by ApplicInt.  Non-funded.",
      "isAssigneeTypeValid": false
    },
    {
      "self": "https://applicint-usa.atlassian.net/rest/api/2/component/10032",
      "id": "10032",
      "name": "Perfective/Enhancement",
      "description": "Perfective changes or enhancements refer to the evolution of requirements and features in the existing system.",
      "isAssigneeTypeValid": false
    },
    {
      "self": "https://applicint-usa.atlassian.net/rest/api/2/component/10033",
      "id": "10033",
      "name": "Preventive",
      "description": "Preventive changes refer to changes made to increase the understanding and maintainability of the software in the long run.",
      "isAssigneeTypeValid": false
    },
    {
      "self": "https://applicint-usa.atlassian.net/rest/api/2/component/10013",
      "id": "10013",
      "name": "Production",
      "description": "Production Issues",
      "isAssigneeTypeValid": false
    }
  ],
  "issueTypes": [
    {
      "self": "https://applicint-usa.atlassian.net/rest/api/2/issuetype/10004",
      "id": "10004",
      "description": "A problem which impairs or prevents the functions of the product.",
      "iconUrl": "https://applicint-usa.atlassian.net/secure/viewavatar?size=xsmall&avatarId=10303&avatarType=issuetype",
      "name": "Bug",
      "subtask": false,
      "avatarId": 10303
    },
    {
      "self": "https://applicint-usa.atlassian.net/rest/api/2/issuetype/10000",
      "id": "10000",
      "description": "A big user story that needs to be broken down. Created by Jira Software - do not edit or delete.",
      "iconUrl": "https://applicint-usa.atlassian.net/images/icons/issuetypes/epic.svg",
      "name": "Epic",
      "subtask": false
    },
    {
      "self": "https://applicint-usa.atlassian.net/rest/api/2/issuetype/10005",
      "id": "10005",
      "description": "Making things better one issue at a time",
      "iconUrl": "https://applicint-usa.atlassian.net/secure/viewavatar?size=xsmall&avatarId=10300&avatarType=issuetype",
      "name": "Improvement",
      "subtask": false,
      "avatarId": 10300
    },
    {
      "self": "https://applicint-usa.atlassian.net/rest/api/2/issuetype/10009",
      "id": "10009",
      "description": "Bug found during QA testing.  Not for release notes",
      "iconUrl": "https://applicint-usa.atlassian.net/secure/viewavatar?size=xsmall&avatarId=10300&avatarType=issuetype",
      "name": "Internal request--bug",
      "subtask": false,
      "avatarId": 10300
    },
    {
      "self": "https://applicint-usa.atlassian.net/rest/api/2/issuetype/10003",
      "id": "10003",
      "description": "The sub-task of the issue",
      "iconUrl": "https://applicint-usa.atlassian.net/secure/viewavatar?size=xsmall&avatarId=10316&avatarType=issuetype",
      "name": "Sub-task",
      "subtask": true,
      "avatarId": 10316
    },
    {
      "self": "https://applicint-usa.atlassian.net/rest/api/2/issuetype/10010",
      "id": "10010",
      "description": "Research/estimate work.   non development work\r\n",
      "iconUrl": "https://applicint-usa.atlassian.net/secure/viewavatar?size=xsmall&avatarId=10300&avatarType=issuetype",
      "name": "Information request",
      "subtask": false,
      "avatarId": 10300
    },
    {
      "self": "https://applicint-usa.atlassian.net/rest/api/2/issuetype/10001",
      "id": "10001",
      "description": "A user story. Created by Jira Software - do not edit or delete.",
      "iconUrl": "https://applicint-usa.atlassian.net/secure/viewavatar?size=xsmall&avatarId=10315&avatarType=issuetype",
      "name": "Story",
      "subtask": false,
      "avatarId": 10315
    },
    {
      "self": "https://applicint-usa.atlassian.net/rest/api/2/issuetype/10002",
      "id": "10002",
      "description": "A task that needs to be done.",
      "iconUrl": "https://applicint-usa.atlassian.net/secure/viewavatar?size=xsmall&avatarId=10318&avatarType=issuetype",
      "name": "Task",
      "subtask": false,
      "avatarId": 10318
    }
  ],
  "assigneeType": "UNASSIGNED",
  "versions": [],
  "name": "ExpressComplete",
  "roles": {
    "Team Lead": "https://applicint-usa.atlassian.net/rest/api/2/project/10007/role/10114",
    "atlassian-addons-project-access": "https://applicint-usa.atlassian.net/rest/api/2/project/10007/role/10100",
    "Developers": "https://applicint-usa.atlassian.net/rest/api/2/project/10007/role/10101",
    "Administrators": "https://applicint-usa.atlassian.net/rest/api/2/project/10007/role/10002"
  },
  "avatarUrls": {
    "48x48": "https://applicint-usa.atlassian.net/secure/projectavatar?pid=10007&avatarId=10512",
    "24x24": "https://applicint-usa.atlassian.net/secure/projectavatar?size=small&pid=10007&avatarId=10512",
    "16x16": "https://applicint-usa.atlassian.net/secure/projectavatar?size=xsmall&pid=10007&avatarId=10512",
    "32x32": "https://applicint-usa.atlassian.net/secure/projectavatar?size=medium&pid=10007&avatarId=10512"
  },
  "projectTypeKey": "software",
  "simplified": false,
  "style": "classic",
  "isPrivate": false
}