  {
    "expand": "description,lead,issueTypes,url,projectKeys",
    "self": "https://applicint-usa.atlassian.net/rest/api/2/project/10005",
    "id": "10005",
    "key": "PRU",
    "name": "Prudential",
    "avatarUrls": {
      "48x48": "https://applicint-usa.atlassian.net/secure/projectavatar?avatarId=10324",
      "24x24": "https://applicint-usa.atlassian.net/secure/projectavatar?size=small&avatarId=10324",
      "16x16": "https://applicint-usa.atlassian.net/secure/projectavatar?size=xsmall&avatarId=10324",
      "32x32": "https://applicint-usa.atlassian.net/secure/projectavatar?size=medium&avatarId=10324"
    },
    "projectTypeKey": "software",
    "simplified": false
  }